module github.com/minicsp

go 1.19

require (
	github.com/stretchr/testify v1.8.4
	golang.org/x/exp v0.0.0-20230817173708-d852ddb80c63
)

require (
	github.com/davecgh/go-spew v1.1.1 // indirect
	github.com/pmezard/go-difflib v1.0.0 // indirect
	gopkg.in/yaml.v3 v3.0.1 // indirect
)
